<?xml version="1.0" encoding="utf-8"?>
<!-- Generator: Adobe Illustrator 22.0.1, SVG Export Plug-In . SVG Version: 6.00 Build 0)  -->
<svg version="1.1" id="Layer_1" xmlns="http://www.w3.org/2000/svg" xmlns:xlink="http://www.w3.org/1999/xlink" x="0px" y="0px"
	 viewBox="0 0 77.7 35.8" style="enable-background:new 0 0 77.7 35.8;" xml:space="preserve">
<style type="text/css">
	.st0{fill:#221F1F;}
	.st1{fill:#E42581;}
</style>
<g>
	<g>
		<path class="st0" d="M7.9,25.9C8,26,8,26.1,8,26.2c0,0.2-0.2,0.4-0.4,0.4c-0.2,0-0.3-0.1-0.4-0.2C6.7,25.7,5.9,25,4.6,25
			c-1.4,0-2.4,0.7-2.4,1.8c0,1,0.8,1.6,1.8,2l1.2,0.4c1.8,0.6,3.1,1.3,3.1,3.1c0,1.8-1.9,2.9-3.7,2.9c-1.7,0-3.1-0.8-3.7-2.1
			c0-0.1-0.1-0.2-0.1-0.2c0-0.2,0.2-0.4,0.4-0.4c0.2,0,0.3,0.1,0.4,0.3c0.5,1,1.5,1.6,2.9,1.6c1.3,0,2.7-0.6,2.7-2
			c0-1.4-1.1-1.8-2.1-2.2l-1.4-0.5c-1.5-0.5-2.6-1.3-2.6-2.8c0-1.5,1.5-2.7,3.4-2.7C6.2,24.2,7.3,25,7.9,25.9z"/>
		<path class="st0" d="M21.8,27.6c0,2.1-1.5,3.3-3.9,3.3h-2.4v3.8c0,0.3-0.2,0.5-0.5,0.5c-0.3,0-0.5-0.2-0.5-0.5v-9.9
			c0-0.3,0.2-0.5,0.5-0.5h2.8C20.3,24.3,21.8,25.6,21.8,27.6z M20.9,27.6c0-1.5-1.1-2.4-2.9-2.4h-2.4V30h2.4
			C19.8,30,20.9,29.2,20.9,27.6z"/>
		<path class="st0" d="M31.4,24.7l4.3,9.8c0,0.1,0,0.1,0,0.2c0,0.3-0.2,0.5-0.5,0.5c-0.2,0-0.4-0.1-0.4-0.3l-1.3-3h-5l-1.3,3
			c-0.1,0.2-0.2,0.3-0.4,0.3c-0.3,0-0.5-0.2-0.5-0.5c0-0.1,0-0.1,0-0.2l4.3-9.8c0.1-0.2,0.2-0.4,0.4-0.4
			C31.2,24.3,31.3,24.4,31.4,24.7z M28.8,31.1h4.4L31,25.9L28.8,31.1z"/>
		<path class="st0" d="M49.2,34.7c0,0.3-0.2,0.5-0.5,0.5c-0.2,0-0.3-0.1-0.4-0.2l-3.3-4.1h-2.2v3.8c0,0.3-0.2,0.5-0.5,0.5
			c-0.3,0-0.5-0.2-0.5-0.5v-9.9c0-0.3,0.2-0.5,0.5-0.5h2.8c2.4,0,3.9,1.3,3.9,3.3c0,1.8-1.1,3-3,3.2l3,3.6
			C49.2,34.5,49.2,34.6,49.2,34.7z M42.9,30h2.4c1.9,0,2.9-0.8,2.9-2.5c0-1.5-1.1-2.4-2.9-2.4h-2.4V30z"/>
		<path class="st0" d="M63.6,24.7c0,0.1,0,0.2-0.1,0.3l-4.3,4.5l4.6,4.9c0.1,0.1,0.1,0.2,0.1,0.3c0,0.2-0.2,0.5-0.4,0.5
			c-0.1,0-0.3-0.1-0.3-0.2l-4.5-4.8l-2.1,2.2v2.3c0,0.3-0.2,0.5-0.5,0.5c-0.3,0-0.5-0.2-0.5-0.5v-9.9c0-0.3,0.2-0.5,0.5-0.5
			c0.3,0,0.5,0.2,0.5,0.5v6.4l6.3-6.7c0.1-0.1,0.2-0.2,0.4-0.2C63.4,24.2,63.6,24.4,63.6,24.7z"/>
		<path class="st0" d="M76.4,34.3c0.2,0,0.4,0.2,0.4,0.4c0,0.2-0.2,0.4-0.4,0.4h-5.8c-0.3,0-0.5-0.2-0.5-0.5v-9.9
			c0-0.3,0.2-0.5,0.5-0.5c0.3,0,0.5,0.2,0.5,0.5v9.5H76.4z"/>
	</g>
	<path class="st1" d="M28.2,4.2c1.2-0.2,2-1,2.9-1.6c0.8-0.5,1.6-1.1,2.4-1.5c1.3-0.7,2.6-0.6,3.8,0c0.3,0.1,0.6,0.3,0.8,0.5
		c0.3,0.2,0.5,0.4,0.8,0.6c0.2-0.2,0.5-0.4,0.7-0.6c0.9-0.7,1.8-1.1,2.9-1.1c0.8,0,1.4,0.3,2.1,0.6c1,0.6,2,1.3,2.9,2
		c0.6,0.5,1.3,0.9,2.1,1c-0.1,0.2-0.3,0.4-0.4,0.6c-1.2,1.8-2.7,3.3-4.5,4.5c-1.7,1.1-3.5,1.7-5.6,1.7c-2.8,0.1-5.2-0.9-7.3-2.6
		c-1.4-1.1-2.6-2.5-3.5-4C28.2,4.4,28.2,4.3,28.2,4.2z"/>
</g>
</svg>
